{
  "Name": "Amatic EVI",
  "Vendor": "EVI",
  "Game_Prefix": "AMT_",
  "Game_Codes": [
      "AMT_LaGranAventura",
      "AMT_NicerDice40",
      "AMT_BookOfFruits20",
      "AMT_LovelyLadyXmas",
      "AMT_BookOfFruitsHalloween"
  ],
  "Hub_Vendor_User": "amatic",
  "Hub_Vendor_Password": "amatic123!",
  "Debit_Amount": 100,
  "Credit_Amount": 100
}