{
  "Name": "Habanero EVI",
  "Vendor": "EVI",
  "Game_Prefix": "HAB_",
  "Game_Codes": [
    "HAB_SGTabernaDeLosMuertos",
    "HAB_SGJellyfishFlow",
    "HAB_SGChristmasGiftRush",
    "HAB_SGTabernaDeLosMuertosUltra",
    "HAB_SGBikiniIsland"
  ],
  "Hub_Vendor_User": "habppt",
  "Hub_Vendor_Password": "habppt123!",
  "Debit_Amount": 100,
  "Credit_Amount": 100
}