{
  "Name": "Wazdan EVI",
  "Vendor": "EVI",
  "Game_Prefix": "WZD_",
  "Game_Codes": [
    "WZD_65888",
    "WZD_65896",
    "WZD_337",
    "WZD_392",
    "WZD_384"
  ],
  "Hub_Vendor_User": "wazdanpptuk",
  "Hub_Vendor_Password": "wazdanpptuk123!",
  "Debit_Amount": 100,
  "Credit_Amount": 100
}